[
{
    "amount": 48.0,
    "archive": ["https://archive.is/qA461"],
    "category": ["Software", "Infrastructure", "License-MIT"],
    "title": "Knuth Node as a Javascript Library Campaign",
    "description": "The Knuth engineering team will start working on the first version of the Knuth Javascript library.",
    "status": "running",
    "time": "2021-02-01",
    "tx": null,
    "url": "https://fund.kth.cash/?id=11",
    "announcement": ["https://www.reddit.com/r/btc/comments/lab1li/new_flipstarter_campaign_knuth_javascript_api/"]
},
{
    "amount": 20.0,
    "archive": ["http://archive.is/XGkpW"],
    "category": ["Charity"],
    "title": "EatBCH",
    "status": "success",
    "time": "2020-03-01",
    "tx": "c0dcdd6fdf6068bb4bdf77de93217a1ba315da58234702526522bd324e61bc89",
    "url": "https://eatbch.flipstarter.cash/"
},
{
    "amount": 360.0,
    "archive": ["http://archive.is/Vj2Ni"],
    "category": ["Infrastructure", "Software"],
    "title": "BCHD",
    "status": "success",
    "time": "2020-05-01",
    "tx": "7e1df3c75598f0fbf6fc5d5df79c3f2cfb673da67a0ff4bfc4449d321ffadbeb",
    "url": "https://bchd.flipstarter.cash/"
},
{
    "amount": 241.0,
    "archive": ["http://archive.is/7ewMU"],
    "category": ["Infrastructure", "Software"],
    "title": "Bitcoin Verde",
    "status": "success",
    "time": "2020-05-01",
    "tx": "fd4d68f48eb135db70979759c1ab2cbd9e88bed8407a274823262aa7d765ae8b",
    "url": "https://verde.flipstarter.cash/"
},
{
    "amount": 1000.0,
    "archive": ["http://archive.is/OA6n3"],
    "category": ["Infrastructure", "Software"],
    "title": "Bitcoin ABC",
    "status": "expired",
    "time": "2020-05-01",
    "tx": null,
    "url": "https://abc.flipstarter.cash/"
},
{
    "amount": 978.0,
    "archive": ["http://archive.is/hYQuZ"],
    "category": ["Infrastructure", "Software"],
    "title": "Bitcoin Cash Node",
    "status": "success",
    "time": "2020-05-01",
    "tx": "2a8acc9b999857ade5fd4bb8b9a5813f035668c92343a74a89167b2115e56474",
    "url": "https://bchn.flipstarter.cash/"
},
{
    "amount": 460.0,
    "archive": ["http://archive.is/8x9oR"],
    "category": ["Infrastructure", "Software"],
    "title": "Knuth",
    "status": "success",
    "time": "2020-05-01",
    "tx": "fd4d68f48eb135db70979759c1ab2cbd9e88bed8407a274823262aa7d765ae8b",
    "url": "https://knuth.flipstarter.cash/"
},
{
    "amount": 31.68,
    "archive": [],
    "category": ["Education", "Adoption"],
    "title": "Cultura BCH Ryver Venezuela Organic Education and Adoption",
    "description": "Cultura BCH Ryver Venezuela Organic Education and Adoption",
    "status": "success",
    "url": "http://flipstarter.ryver.site/",
    "tx": "c8da195a1822a3218283fc01a9a4bc50243dc5fc5fa41db25e95a3c7fc3dd107"
},
{
    "amount": 750.0,
    "archive": ["http://archive.is/kLmsP"],
    "category": ["Infrastructure", "Software"],
    "title": "mainnet.cash",
    "status": "success",
    "time": "2020-08-09",
    "tx": "d288e3569cb1c95fd41821564b8e12cbedd68ce6f1ebe5de930e8cbe24af77a3",
    "url": "https://flipstarter.mainnet.cash/"
},
{
    "amount": 65.0,
    "archive": ["http://archive.is/CuBEC"],
    "category": ["Infrastructure", "Software"],
    "title": "bitcoincashj",
    "description": "The bitcoincashj Flipstarter will allow me to focus more of my time on development of this Bitcoin Cash library.",
    "status": "success",
    "time": "2020-08-11",
    "tx": "d3cec791adc492f019dd7149f11a4b0a98815a50a7f7e57903be1622eb92ddc1",
    "url": "https://flipstarter.pokkst.xyz/"
},
{
    "amount": 650.0,
    "archive": ["http://archive.is/Lg6B9", "https://archive.is/4P4Q7"],
    "category": ["Marketing", "Adoption"],
    "title": "Bitcoin Cash (BCH) Marketing",
    "description": "In recent months, members of the Bitcoin Cash (BCH) community have expressed their desire to fund useful initiatives through voluntary funding mechanisms like Flipstarter. This has resulted in successful campaigns to raise donations for the Bitcoin Cash full node implementations and more recently for Mainnet.Cash, where cumulatively over 2900 BCH was raised through Flipstarter alone. In observing these campaigns and gauging the response to them by the community, it came to my attention that some would prefer to donate funds to Bitcoin Cash (BCH) marketing efforts rather than development. This is an area lacking attention and I am proposing that 650 BCH in donations are raised to produce Bitcoin Cash (BCH) marketing material in the form of high-quality videos.",
    "status": "expired",
    "time": "2020-08-11",
    "tx": null,
    "url": "https://flipstarter.bitcoinbch.com/"
},
{
    "amount": 30.0,
    "archive": ["http://archive.is/4tTSA", "https://web.archive.org/web/20200814073258/https://flipstarter.devcon.cash/"],
    "category": ["Hackathon", "Adoption"],
    "title": "BCH DevCon III",
    "description": "Host a 32 hours non-stop hackathon in Los Angeles California",
    "status": "success",
    "time": "2020-08-01",
    "tx": "a5e5004842c0a3bfe6c41cfa79a9544b0b2a926ee23757272e3faf352065e522",
    "url": "https://flipstarter.devcon.cash/"
},
{
    "amount" : 8,
    "archive": ["http://archive.is/23nPb", "http://archive.is/WY4g0"],
    "category": ["Adoption", "Usecase"],
    "title": "Integrate BCH at Bitfortip",
    "description": "Implement Bitcoin Cash at Bitfortip | Tip Bitcoin Cash as an incentive | Earn Bitcoin Cash for being helpful | A social reward network",
    "status": "success",
    "time": "2020-08-12",
    "tx": "47a9b613071537f44bd20cf347722f107c6311ba27ca529ec6722c378fc48974",
    "url" : "http://138.68.81.43/"
},
{
    "amount" : 5,
    "archive": ["", ""],
    "category": ["Adoption", "Usecase"],
    "title": "Promotional video by Satoshi Angels on how to offer Bitcoin Cash as a financial incentive with Bitfortip smartphone app & website.",
    "description": "Satoshi angels would love to make a video about Bitfortip and showcase it as a usecase on their local BCH events. They will create a 10 min. max video showing how to post inquiries with BCH rewards, how to earn, share it on their social media and present it on their local BCH events",
    "status": "ongoing",
    "time": "2021-02-02",
    "tx": "",
    "url" : "http://161.35.187.207/"
},
{
    "amount" : 200,
    "archive": ["http://archive.is/8iwdf", "https://archive.is/wjWRb"],
    "category": ["SocialMedia", "Software", "License-AGPLv3"],
    "title": "member.cash flipstarter",
    "description": "member.cash is a social network interface that uses the Bitcoin Cash network to transmit and store all needed data using the Memo protocol. I'm seeking 200 BCH(~$60,000) to fund 3 months of rapid development and growth hacking. Until there are 7 days to expiry, please limit individual pledges to a maximum of 20BCH.",
    "status": "expired",
    "time": "2020-08-15",
    "tx": null,
    "url" : "http://flipstarter.member.cash/"
},
{
    "amount" : 160,
    "archive": ["http://archive.is/2a1WI", "http://archive.is/xHN5i"],
    "category": ["Infrastructure", "Developer"],
    "title": "Help Mark Lundeberg work on Bitcoin Cash",
    "description": "I'm Mark B. Lundeberg. A former physicist, I made my first foray into the cryptocurrency world by getting involved with Bitcoin Cash in early 2018, and I've come to love the technology and the passionate community around it. Some people recently suggested I should launch a Flipstarter, so here we go",
    "status": "success",
    "time": "2020-08-16",
    "tx": "88f8c982a2d4957cce452195fa84d21719ec6d937cd4df23a3d5543d44e5193b",
    "url" : "https://bitcoincashfund.com/"
},
{
    "amount": 300.0,
    "archive": ["https://web.archive.org/web/20200817064706/https://flipstarter.electroncash.org/", "http://archive.is/NgMog", "http://archive.is/8LoES"],
    "category": ["Infrastructure", "Software", "License-MIT"],
    "title": "Electron Cash Flipstarter",
    "description": "Electron Cash (EC) has been a cornerstone of the Bitcoin Cash (BCH) ecosystem since day one. Not only has it been a reliable power wallet for daily desktop use with the most features of any BCH wallet; it was also used to bootstrap Bitcoin Cash innovations like the Simple Ledger Protocol token system, CashShuffle, CashFusion, Flipstarter, Cash Accounts, and smart contracts like Mecenas and Last Will Vault.",
    "status": "success",
    "url": "https://flipstarter.electroncash.org/",
    "time": "2020-08-17",
    "tx": "66a72aeaed70cad00553f0ffd597e359b7cedd7d8c832d8ed1ae1d51dfa79597",
    "announcement": ["https://old.reddit.com/r/btc/comments/i7qrfp/overview_of_past_current_flipstarters/g13neq8/"]
},
{
    "amount": 300.0,
    "archive": ["http://archive.is/BsFbk", "https://web.archive.org/web/20200817074951/https://flipstarter.getstamp.io/"],
    "category": ["Software", "License-Proprietary"],
    "title": "Bring Stamp Wallet to mobile and mainnet!",
    "description": "Stamp is a next generation Bitcoin Cash wallet built on top of the CashWeb suite of protocols. It provides end-to-end encrypted messaging without the need for a centralized coordinator. Stamp works by sending off-chain e2e encrypted structured messages between wallets. This enables a plethora of advanced features on top of Bitcoin Cash which would otherwise not be possible.",
    "status": "expired",
    "url": "https://flipstarter.getstamp.io/",
    "time": "2020-08-17",
    "tx": null,
    "announcement": ["https://twitter.com/Stamp_Chat/status/1295162098603835392"]
},
{
    "amount": 250.0,
    "archive": ["http://archive.is/RUzc3"],
    "category": ["Infrastructure", "Software", "License-MIT"],
    "title": "Mitra Labs — Smart Contract System For Bitcoin Cash",
    "description": "MITRA COULD BE THE SINGLE BEST IMPROVEMENT FOR TURNING BITCOIN CASH INTO MONEY 2.0.",
    "status": "expired",
    "url": "https://mitra.be.cash/",
    "time": "2020-08-18",
    "tx": null,
    "announcement": ["https://twitter.com/TobiasRuck/status/1295394117242036225"]
},
{
    "amount": 65.0,
    "archive": ["http://archive.is/dj4bi"],
    "category": ["Software", "License-GPLv3"],
    "title": "Electro CashX: Wallet & DEX!",
    "description": "A new Wallet with DEX integration built upon the BCH REST API!",
    "status": "expired",
    "url": "http://electrocashxfund.tech/",
    "time": "2020-08-18",
    "tx": null,
    "announcement": ["https://old.reddit.com/r/btc/comments/ibpzus/flipstarter_campaign_electro_cashx_wallet_dex_hey/"]
},
{
    "amount": 80.0,
    "archive": ["http://archive.is/beUAQ", "https://archive.is/edgka"],
    "category": ["Software", "License-MIT"],
    "title": "KNUTH NODE AS A C#/.NET LIBRARY",
    "description": "The Knuth development team is working hard to release our first version of the Knuth C#/.NET library.",
    "status": "success",
    "url": "https://campaigns.kth.cash/?id=10",
    "time": "2020-08-19",
    "tx": "ec2a83a83203616d217692a88af7ea843bf79157fc6ad7c995d41ee8ff99fe65",
    "announcement": ["https://twitter.com/KnuthNode/status/1295910789371527168"]
},
{
    "amount": 102.0,
    "archive": ["http://archive.is/1nY9w", "https://archive.is/cG2r7"],
    "category": ["Adoption"],
    "title": "Venezuela Workers Fundraising",
    "description": "Venezuela Workers Fundraising for Platform and Branding Improvements",
    "status": "success",
    "url": "https://flipstarter.venezuelaworkers.net/",
    "time": "2020-08-19",
    "tx": "970ea81b902741920c55c8ced11b2fa5f73ee0de5c2dba285f2d84fbba820fe3",
    "announcement": ["https://twitter.com/VenWorkers/status/1295991801728372737"]
},
{
    "amount": 30,
    "archive": ["http://archive.is/eLq5m", "http://archive.is/ioPFm"],
    "category": ["Adoption", "Education", "Gaming"],
    "title": "Gameflame.cash | Flipstarter campaign",
    "description": "World wide BCH adoption via intellectual games.",
    "status": "success",
    "url": "http://flipstarter.gameflame.cash/",
    "tx": "42ebb3d9f5a16294106f82cebff7836c1ca2e1f2bc33f633f811d199f59c3ae7",
    "announcement": ["https://twitter.com/ralakss/status/1296132202099548161"]
},
{
    "amount": 117.40,
    "archive": ["http://archive.is/c3ol7", "https://archive.is/xkW3W"],
    "category": ["Charity"],
    "title": "EatBCH: Helping those in need and increasing adoption",
    "description": "EatBCH is a group of friends doing what we can to help our neighbours in this time of uncertainty. Over the last two years we have served cooked meals and delivered food bags to people in need. We have also demonstrated, both locally and to the world, that Bitcoin Cash has great utility as borderless money.",
    "status": "success",
    "url": "https://flipstarter.eatbch.org/",
    "announcement": ["https://twitter.com/eatBCH/status/1297677446335148037"],
    "tx": "002c356e41467b8742f09e3b930b1ba1655e8a57905005fdb40b6f94ebc60370"
},
{
    "amount": 65.38,
    "archive": ["https://archive.is/AA2wf", "https://archive.is/SqCfp"],
    "category": ["Adoption", "Usecase"],
    "title": "BCH on CoinKit",
    "description": "We are the team of the company Blockcurators GmbH from Germany and are seeking funds to integrate BCH into our CoinKit.  We offer a tipbot as a service with support for different communication platforms. As soon as the integration is active, everyone can use the tipbot on twitter, discord, slack or telegram giving more exposure and visibility to syscoin",
    "status": "success",
    "url": "https://flipstarter-coinkit.blockcurators.com/",
    "announcement": ["https://old.reddit.com/r/btc/comments/igglwj/flipstarter_to_add_bch_on_coinkit/"],
    "tx": "c553727bea9a6574bce1df7259aebf5de9a3fdfa018dad3b56eb2b2fb726bfe4"
},
{
    "amount": 360,
    "archive": ["https://archive.is/VtA9L"],
    "category": ["Marketing", "Adoption"],
    "title": "Bitcoin Cash (BCH) Marketing",
    "description": "Earlier today the Flipstarter Campaign for Bitcoin Cash (BCH) Marketing expired without reaching its target. It ran for 22 days and at its peak accumulated over 350 BCH from 36 generous contributors. This was over 50% of the funding goal of 650 BCH ($200,000 at time of campaign launch). I would like to thank those who supported the Flipstarter with hopes of it succeeding. It means a lot knowing that I have so much support and appreciation for my work in the Bitcoin Cash community.",
    "status": "expired",
    "url": "https://flipstarter.bitcoinbch.com/",
    "announcement": ["https://read.cash/@BitcoinBCH/bitcoin-cash-bch-marketing-flipstarter-v2-ed847871"],
    "time": "2020-09-01",
    "tx": null
},
{
    "amount": 150.0,
    "archive": ["https://archive.is/5fGGW", "https://archive.is/uY9ip"],
    "category": ["Infrastructure", "Developer"],
    "title": "Fund jtoomim for 3 months of BCH dev work",
    "description": "My name is Jonathan Toomim. I have been involved with big blocks and Bitcoin Cash on a part-time basis for many years, and I'd like to take my work full-time for a few months. During this time, I will be working on a few projects relating to BCH's scaling, governance, and transaction speed. I am/will be working full-time on BCH from Aug 15th to Nov 15th, and I am asking BCH users and holders to pay me for my work. I will put in a minimum of 500 hours of work. My goal is to get about 75% of my funding from this Flipstarter, and the rest from tips or donations.",
    "status": "success",
    "url": "https://flipstarter.toom.im/",
    "announcement": ["https://www.reddit.com/r/btc/comments/il4os5/jtoomims_flipstarter_is_live_official_discussion/", "https://www.reddit.com/r/btc/comments/idqaca/how_much_should_jtoomim_ask_for_in_his_flipstarter/"],
    "tx": "2192ba1716319cdbd3b03638d8223171e6e0195ceffb53ca2efd0d5229ee9db5",
    "time": "2020-09-02"
},
{
    "amount": 1.0,
    "archive": ["http://archive.is/yjJcJ", "https://archive.is/dtQsl"],
    "category": ["Adoption", "Gaming"],
    "title": "Rust Tournament Fundraiser - Frag Mod",
    "description": "Running prize tournaments will support the development of a new sick-ass Rust game mode called FRAG MOD",
    "status": "success",
    "url": "http://134.122.40.167/",
    "announcement": ["https://www.reddit.com/r/btc/comments/ikvk9m/rust_game_tournament_flipstarter_campaign_1_bch/"],
    "tx": "9c56e0be5b77e919cecb24fd33f861982405cf024b313b8f3d683bf3e72dfd21",
    "time": "2020-09-02"
},
{
    "amount": 110.0,
    "archive": ["https://archive.is/HGgLA", "https://archive.is/9uYgH"],
    "category": ["SCAM?", "Software", "Infrastructure"],
    "title": "Funding for an Alternative Fullnode Implementation written in Javascript",
    "description": "This project is an alternative fullnode implementation of the BCH protocol based on the Bitcoin full node implementation bcoin. Originally created back in early 2018 as a fork of bcoin.",
    "status": "success",
    "url": "http://flipstarter.cashfullnode.com/",
    "announcement": ["https://old.reddit.com/r/btc/comments/in4anj/flipstarter_campaign_opened_for_an_alternative/"],
    "tx": "6f65375a57da548d4c3fa84f304c5ab2c3f3da900a55d4e34cd31b818ce2796a",
    "time": "2020-09-06"
},
{
    "amount": 30.0,
    "archive": ["https://archive.is/nZ1YW", "https://archive.is/xsEWf"],
    "category": ["Hardware", "Wallet"],
    "title": "Satochip.io - Crowdfunding",
    "description": "Satochip is an open source and community driven project that aims to provide affordable harware wallet solutions for everyone.",
    "status": "success",
    "url": "http://flipstarter.satochip.io/",
    "announcement": ["https://twitter.com/SatochipWallet/status/1303200866141442049"],
    "tx": "4c85c75565f90e1e57c806a233fa7f1660aed3e1b0b11659073bfa958199c8f9",
    "time": "2020-09-08"
},
{
    "amount": 107.0,
    "archive": ["https://archive.is/N4QEv", "https://archive.is/9trGi"],
    "category": ["SocialMedia", "Software", "License-AGPLv3"],
    "title": "member.cash flipstarter",
    "description": "member.cash is a social network interface that uses the Bitcoin Cash network to transmit and store all needed data using the Memo protocol. I'm seeking 107 BCH(~$24,000) to fund 6 weeks of rapid development and growth hacking. I will take a development/project management salary of 2K USD per week and spend 2K per week on delegated tasks like design, translation, promotion and marketing.",
    "status": "success",
    "url": "http://flipstarter.member.cash/",
    "announcement": ["https://old.reddit.com/r/btc/comments/ipyzsf/flipstartermembercash_membercash_flipstarter_2nd/"],
    "tx": "531c0e344d061364c316bbc9273fcf0069a0ee208bff73522a8e66bd4b6f803a",
    "time": "2020-09-10"
},
{
    "amount": 227.08,
    "archive": ["https://archive.is/50X6L", "https://web.archive.org/web/20200911053430/https://flipstarter.bitcoincash.site/"],
    "category": ["Marketing", "Adoption"],
    "title": "BitcoinCash.site: A Marketing & Business Onboarding Hub for Bitcoin Cash",
    "description": "BitcoinCash.site is a marketing and onboarding hub for Bitcoin Cash in service of the goal of onboarding 1 million new people to Bitcoin Cash by 31 Dec 2021. During our first 6 months of operation, we will be focused on marketing, outreach and the creation of tutorial materials. We will be producing dozens of short videos and other graphic media that aim to attract, onboard, train, motivate and retain new BCH builders in the areas of P2P liquidity,  local outreach and merchants & meetups.",
    "status": "success",
    "url": "https://flipstarter.bitcoincash.site/",
    "announcement": ["https://twitter.com/GeorgeDonnelly/status/1304172027260133378", "https://www.reddit.com/r/btc/comments/iqcc0l/im_doing_a_bch_marketing_flipstarter_and_its/"],
    "tx": "032ad2fa00fa7fbb889a929edb52c7af379969928d552825a76d2e0b6f89eca5",
    "time": "2020-09-11"
},
{
    "amount": 19.0,
    "archive": ["https://archive.is/YaREy", "https://archive.is/mFI2Z"],
    "category": ["Marketing", "Adoption"],
    "title": "Help me to spread awareness about Bitcoin Cash in Brazil",
    "description": "THE BITCOIN CASH BRAZIL INITIATIVE - HELP ME SPREAD AWARENESS ABOUT BCH ACROSS MY COUNTRY. Hello Everyone, My Name is Antonio, you may know me as @phabulu on read.cash or @shadowcrypto on twitter and YouTube. Recently I’ve started to build a BCH community in Brazil a totally voluntary work to help increase awareness and adoption of my favorite cryptocurrency, and it’s not only this, recently I’ve made a speech at the Biggest cryptocurrency event of South America, the Bitconf: http://bitconf.com.br/ an event with more than 1500 people, related to cryptocurrency, sharing ideas, learning new things and more.",
    "status": "success",
    "url": "http://209.97.152.182/",
    "announcement": ["https://read.cash/@phabulu/help-me-to-spread-awareness-about-bitcoin-cash-in-brazil-flipstarter-campaign-5b5ab17d"],
    "tx": "ef60004369c8315e7651aa72ce70dc74f0ce3395e65fdcdeee2e03d4fc957ee3",
    "time": "2020-09-13"
},
{
    "amount": 0.69,
    "archive": ["https://archive.is/QWFQc", "https://archive.is/3xJgT"],
    "category": ["Random"],
    "title": "ismikekomaranskydead.com",
    "description": "Keep the site alive to see if Mike Komaransky is dead.",
    "status": "success",
    "url": "https://flipstarter.ismikekomaranskydead.com/",
    "announcement": ["https://twitter.com/mkomaransky/status/1306287404316323845"],
    "tx": "5b0ad5acc32430c7d9369101c55153a6c9e894e32649f2fde5b2a765dd442aef",
    "time": "2020-09-17"
},
{
    "amount": 299.50,
    "archive": ["https://archive.is/6PM8L", "https://archive.is/VyQWQ"],
    "category": ["Documentary"],
    "title": "Breaking Bitcoin",
    "description": "A Feature Documentary about The Great Bitcoin Scaling Debate",
    "status": "success",
    "url": "http://flipstarter.breakingbitcoinfilm.com/",
    "announcement": ["https://old.reddit.com/r/btc/comments/iud5gr/ive_just_launched_the_flipstarter_for_my_feature/"],
    "tx": "66dba5e2b405aca27c7281bda14df63e84d6d5802b5745d27362132619b27719",
    "time": "2020-09-17"
},
{
    "amount": 50.0,
    "archive": ["https://archive.is/FCWTA"],
    "category": ["SocialMedia"],
    "title": "The Support 'Big Bubbler' Fund",
    "description": "Support 'Big Bubbler' in his ongoing efforts to monitor select social media for attacks/trolling from those working to harm Bitcoin Cash (the only serious attempt to fulfill the real Bitcoin dream: decentralized (un-stoppable) peer-to-peer electronic cash for the world's people).",
    "status": "expired",
    "url": "http://157.245.178.96/",
    "announcement": ["https://old.reddit.com/r/btc/comments/iue0io/announcing_the_support_big_bubbler_fund/"],
    "tx": null,
    "time": "2020-09-17"
},
{
    "amount": 65.0,
    "archive": ["https://archive.is/A8E91", "https://archive.is/UFC9S"],
    "category": ["Marketing", "Adoption"],
    "url": "https://bitcoinman.cash/",
    "title": "Help BitcoinMan of Bakersfield Get National Media To Cover Bitcoin Cash",
    "description": "Have you heard yet about the mysterious philanthropist “Bitcoin Man of Bakersfield” giving away hundreds of dollars in bitcoin cash in QR scannable stickers hidden all over the city? Well I have a confession… that Bitcoin man is me.",
    "status": "success",
    "announcement": ["https://old.reddit.com/r/btc/comments/ivy7gd/i_got_an_entire_city_to_talk_about_bitcoin_cash/g5ug28f/"],
    "tx": "8945f3eb6fa44b52d19360aad387bbb02b2fcf76b487c3299c2dc66fe2b25cf1",
    "time": "2020-09-20"
},
{
    "amount": 50.0,
    "archive": ["https://archive.is/819Gz"],
    "category": ["Adoption", "Education"],
    "url": "https://nbtv.media/",
    "title": "7-part video series presented by NBTV: P2P Cash: A Guide for Newcomers",
    "description": "To help newcomers understand why crypto is truly important -- because uncensorable money gives us back control over our daily financial choices. This series would be a resource to show people why we need electronic P2P cash, and how to make it part of our daily lives.",
    "status": "success",
    "announcement": ["https://twitter.com/naomibrockwell/status/1308764294889328641"],
    "tx": "4cf04d03a25cd60b129c252093758f12c3467564af5bac939467fba4be086ebb",
    "time": "2020-09-21"
},
{
    "amount": 7.0,
    "archive": ["https://archive.is/UPMw9"],
    "category": ["Marketing"],
    "url": "https://bitcoinmanunstoppablecashflipstarter.com/",
    "title": "Adoption Trend Goal. Bitcoin Man Inspired.",
    "description": "To Follow the trend The Bitcoin Man Inspired. :)",
    "status": "expired",
    "announcement": ["https://old.reddit.com/r/btc/comments/ix697h/flipstarter_to_help_adoption_inspired_by_the/"],
    "tx": null,
    "time": "2020-09-22"
},
{
    "amount": 30.0,
    "archive": ["https://archive.is/pOTNB", "https://archive.is/sLwbv"],
    "category": ["Hackathon", "Adoption"],
    "url": "http://flipstarter.blockhack.ca/",
    "title": "Blockhack Global by Bitcoin Bay",
    "description": "Bitcoin Bay is inviting talented participants with strong technical and business acumen from across the globe. They may bring their pre-existing blockchain projects or start fresh by tackling challenges set out by partners. Out of 100 teams, the top 10 will earn an opportunity to pitch their project to investors.",
    "status": "success",
    "announcement": ["https://old.reddit.com/r/btc/comments/ixoj1o/inviting_bchdevconiii_participants_to_block_hack/"],
    "tx": "c46ba516a289480439c6ef2a7ef7b38e2a12ff5cd1080357e63a4da6ceb180ff",
    "time": "2020-09-22"
},
{
    "amount": 330.0,
    "archive": ["https://archive.is/RA6Um"],
    "category": ["Software", "License-MIT"],
    "url": "https://flipstarter.sphere10.com/",
    "title": "Help Make Bitcoin Cash Integration For Enterprise Easier Than Ever Before",
    "description": "We are seeking funding to build CashSQL Server, an open-source, enterprise-class “blockchain backend” that will allow app builders to integrate their apps into the Bitcoin Cash blockchain and network easier than ever before (and without relying on 3rd party APIs).",
    "status": "expired",
    "announcement": ["https://old.reddit.com/r/btc/comments/ixk8gb/flipstarter_cashsql/"],
    "tx": null,
    "time": "2020-09-22"
},
{
    "amount": 75.0,
    "archive": ["https://archive.is/4a1N2"],
    "category": ["Software", "License-UNKNOWN"],
    "url": "http://flipstarter.iwallet.cash/",
    "title": "iWallet.Cash - The Intuitive Bitcoin Cash Wallet for the Web",
    "description": "iWallet.Cash aims to be the best, most intuitive, standardized, and extensible wallet for Bitcoin Cash, able to run on any platform with the use of a modern web browser like Firefox, Chrome, etc.",
    "status": "expired",
    "announcement": ["https://old.reddit.com/r/btc/comments/ixrqb7/flipstarter_iwalletcash_the_intuitive_bitcoin/"],
    "tx": null,
    "time": "2020-09-25"
},
{
    "amount": 590.0,
    "archive": [],
    "category": ["Software", "License-UNKNOWN", "SLP"],
    "url": "https://flipstarter.simpleledger.io/",
    "title": "SLP Rewards Tooling",
    "description": "We plan to build a new rewards distribution toolbox for Electron Cash. The toolbox would be initially developed for the Electron Cash SLP Edition (EC SLP) wallet and eventually merged into the mainline version of Electron Cash after basic SLP support has been merged, which is scheduled to occur in the next 6-months. Furthermore, we will provide high-quality tutorial videos for new users to simplify the onboarding experience into the SLP ecosystem.",
    "status": "expired",
    "announcement": ["https://old.reddit.com/r/btc/comments/iye0z9/new_slp_rewards_tooling_may_be_on_its_way/"],
    "tx": null,
    "time": "2020-09-25"
},
{
    "amount": 50.0,
    "archive": ["https://archive.is/VFpB9"],
    "category": ["SocialMedia", "Video", "Rewards"],
    "url": "https://flipstarter.yoshilivo.com/",
    "title": "HonklerHangout's Liberland Merit sale",
    "description": "Since this year I've started to stream and I enjoy it so much, that I would like to take this hobby to the next level by buying a dedicated computer for that purpose and set aside a budget for promotion. I'm also in development of the Liberland Opportunity Zone, which also costs some real world currency. For these purposes I offer to sell 10.000 Liberland Merit (LLM), a SLP-token on top of the BCH blockchain, for 0.005 BCH per Liberland Merit.",
    "status": "expired",
    "announcement": ["https://old.reddit.com/r/btc/comments/j1d0h5/honklerhangout_birthdaystream_official_launch/"],
    "tx": null,
    "time": "2020-09-29"
},
{
    "amount": 175.0,
    "archive": ["https://archive.is/ZdFPW"],
    "category": ["Informative", "Adoption"],
    "url": "https://flipstarter.build.cash",
    "title": "Help Found Build.Cash",
    "description": "If I were to ask you what is the best place to find a BCH wallet where would you look? If I asked you what BCH privacy projects are being developed and where can I find them, what would you say? There has been a problem sharing and compiling information. I want to end that problem.",
    "status": "expired",
    "announcement": ["https://www.reddit.com/r/btc/comments/ii8by2/my_project_buildcash_now_has_an_active/"],
    "tx": null,
    "time": "2020-09-30"
},
{
    "amount": 331.0,
    "archive": ["https://archive.is/qH28O"],
    "category": ["Adoption", "Education", "Rewards"],
    "url": "https://flipstarter.satoshisangels.com",
    "title": "Satoshi’s Angels Flipstarter Campaign",
    "description": "We are a team of cryptocurrency enthusiasts, dedicating ourselves to the realization of useful peer-to-peer electronic cash adoption for the world. Our mission is threefold, educating the masses, building communities and promoting cryptocurrency services. In addition, we specialise in connecting the East and West, by leveraging our team’s language skills and global expertise.",
    "status": "success",
    "announcement": ["https://twitter.com/SatoshiAngels/status/1311619369043030016"],
    "tx": "d8e862b3e9f4043cd1c82f5c678b089574f122aaa60e955c6dbb7a7cd0e3eded",
    "time": "2020-10-01"
},
{
    "amount": 245.0,
    "archive": ["https://archive.is/MjlpS", "https://archive.is/mbQ2D"],
    "category": ["Software", "Adoption", "License-MIT"],
    "url": "https://flipstarter.paybutton.org/",
    "title": "PayButton",
    "description": "For the past 2 years or so, Bitcoin Cash has been lacking proper options for individuals & small businesses to easily accept Bitcoin Cash on the web. Bitcoin Cash is meant to be used; it’s meant to be spent. While the Bitcoin Cash ecosystem is still in its infancy, it’s more important than ever to make it easy for those who are supporting the project to use it no matter their level of technical ability.",
    "status": "success",
    "announcement": ["https://www.reddit.com/r/btc/comments/jaip9z/paybutton_v1_release_flipstarter/"],
    "tx": "41c7013f0c36d5d7df6ef0b49ea93e1334deab9fa18a7dd72b39fe5dacfb42df",
    "time": "2020-10-13"
},
{
    "amount": 22.0,
    "archive": ["https://archive.is/2MxJz"],
    "category": ["Charity"],
    "url": "https://flipstarter.mexicobch.cash/",
    "title": "Help those who nobody wants to help - Introduction to BCH for the People / Merchants",
    "description": "We are a small group of people here in Guadalajara, MX. We came together over a common goal. Get out there and help the community that nobody is willing to help, and introduce BCH as borderless money to the people/merchants.",
    "status": "expired",
    "announcement": ["https://twitter.com/MexicoBch/status/1314710089228595208"],
    "tx": null,
    "time": "2020-10-16"
},
{
    "amount": 20.0,
    "archive": ["https://archive.is/BtkHI", "https://archive.is/nyCC7"],
    "category": ["SLP", "Rewards"],
    "url": "https://flipstarter.honkhonk.io/",
    "title": "Flipstart bet.honkhonk.io",
    "description": "We were partially funded to build an SLP-powered sports betting site that would have featured BCH, SPICE, HONK, and DROP SLP tokens. Unfortunately, our funding goal was never met.",
    "status": "success",
    "announcement": ["https://twitter.com/realhonktoken/status/1314343875998355465"],
    "tx": "a5fb52a3524ca74405558f8d8c2d777ba9ecebaa9cbf128e39c5d2edb205ff9e",
    "time": "2020-10-16"
},
{
    "amount": 65.0,
    "archive": ["https://archive.is/kdTlH", "https://archive.is/BwHt9"],
    "category": ["Adoption", "Remittance"],
    "url": "https://flipstarter.casabitcoin.cash/",
    "title": "Flipstarter of Bitcoin Cash House Venezuela",
    "description": "We are the first Center of Attention to the Public, and of Educational Advice of the technology Bitcoin Cash in the world. In Bitcoin cash house we can serve 2 or 3 people daily, who leave the place with the wallet installed, and with knowledge to continue learning and to hold a meeting in your company or business.",
    "announcement": ["https://www.reddit.com/r/btc/comments/jg18ci/bitcoin_cash_house_flipstarter_launch/"],
    "status": "success",
    "tx": "6d2e110404fc6b373e2e1c43c72863663efe5b857e53f7ecd8494e8971741043",
    "time": "2020-10-22"
},
{
    "amount": 101.0,
    "archive": ["https://archive.is/VtTGB", "https://archive.is/6mwv7"],
    "category": ["VideoGame", "SLP", "Rewards", "License-Proprietary"],
    "url": "http://flipstarter.enter-the-sphere.com/",
    "title": "The Sphere - Bringing NFT Game Collectibles to Bitcoin Cash",
    "description": "The Sphere is a collectible RPG card game built on SLP NFT technology, where entrants battle to ascend The Tower and sit on The Throne. Only one player or team wins every cycle with the prize.",
    "announcement": ["https://old.reddit.com/r/btc/comments/jgqdv2/19_flipstarter_day_to_go_check_out_the_spheres/"],
    "status": "success",
    "tx": "b241375ee4461586e3f41fd6c1727c65eed4ff5a17a6edd8a31eae7bc1e41a31",
    "time": "2020-10-23"
},
{
    "amount": 140.0,
    "archive": ["https://archive.is/4LvPI"],
    "category": ["SocialMedia", "SLP", "Software", "License-MPL2"],
    "url": "https://flipstarter.stackk.app/",
    "title": "Stackk self-governed online communities Flipstarter Campaign",
    "description": "Stackk is a decentralized and federated social network owned and governed by the community. No single entity has the power to de-platform users or monetize their attention. Stackk provides a single user interface with smart contracts for users to create or use an infinite number of communities. Every community is an independent social network with optional interoperability with other communities out of the box. Community managers are incentivized to setup a node and participate in the infrastructure of the network. Users don’t need to own BCH to use the social network, however their reputation, authenticity and followers are secured by the blockchain.",
    "announcement": ["https://old.reddit.com/r/btc/comments/jmmxp7/im_running_a_flipstarter_for_stackk_a_federated/", "https://twitter.com/p0oker/status/1323246601163350016"],
    "status": "expired",
    "tx": null,
    "time": "2020-11-02"
},
{
    "amount": 330.0,
    "archive": ["https://archive.is/cCbxX"],
    "category": ["Software", "License-MIT"],
    "url": "https://flipstarter.sphere10.com/",
    "title": "Cashlink Network (Phase 1): CashSQL Server",
    "description": "Sphere 10 Software is developing the Cashlink network, a 'layer 1.5' P2P network designed to integrate the outside world of data into the BCH blockchain (and vice-versa).",
    "status": "expired",
    "announcement": ["https://old.reddit.com/r/btc/comments/jv2iur/flipstarter_cashlink_network_phase_1_cashsql/"],
    "tx": null,
    "time": "2020-11-17"
},
{
    "amount": 25.0,
    "archive": ["https://archive.is/t3aax", "https://archive.is/lFYYC"],
    "category": ["Software", "License-Apache2"],
    "url": "https://flipstarter2.pokkst.xyz/",
    "title": "Continued BitcoincashJ Development",
    "description": "Completion of this Flipstarter will allow me to further develop bitcoincashj and implement even more features and improvements.",
    "status": "success",
    "announcement": ["https://twitter.com/pokkst/status/1328823147932467201"],
    "tx": "17e05fa47fbfff3dfff74b46b099382f6bb2ccc9d6971abb826ef28f1ded52f2",
    "time": "2020-11-17"
},
{
    "amount" : 200,
    "archive": ["https://archive.is/W2174"],
    "category": ["SocialMedia", "Software", "License-AGPLv3"],
    "title": "Member / member.cash 6 months development funding",
    "description": "member.cash is a social network interface that uses the Bitcoin Cash network to transmit and store all needed data using the Memo protocol.",
    "status": "expired",
    "time": "2020-11-18",
    "tx": null,
    "url" : "http://flipstarter.member.cash/",
    "announcement": ["https://old.reddit.com/r/btc/comments/jwbchr/new_membercash_flipstarter/"]

},
{
    "amount" : 45,
    "archive": ["https://archive.is/BCtQh", "https://archive.is/Ue6nA"],
    "category": ["Crowdfunding"],
    "title": "Flipstart fundme.cash with new token ecosystem",
    "description": "We originally built this platform out so users could create campaigns to receive donations in BCH. We had a 5% fee on the platform to make this a profitable venture. Unfortunately, we had several donors express the similar concern: “We don’t want to pay the 5%”. We heard you loud and clear. This means we had to come up with another profit model. Our lead developer Artur suggested we utilize SLP tokens. This idea created an environment where the site could remain profitable, and create an ecosystem with a token for investors to profit as well.",
    "status": "success",
    "time": "2020-11-20",
    "tx": "eb4f5f2ed9a09cf7d2b2abdb87461430f9ff6f6ec94f224a929ea3f3bc39c7df",
    "url" : "https://flipstarter.fundme.cash/",
    "announcement": ["https://twitter.com/FundMeCash/status/1329139533972180992"]
},
{
    "amount" : 52,
    "archive": ["https://archive.is/u11eF", "https://archive.is/WiPzd"],
    "category": ["Hackathon"],
    "title": "CoinParty2020 Hackathon - Let's Get Building On BCH!",
    "description": "The most exciting hackathon of 2020 is nearly here! CoinParty2020! CoinParty is a global, remote hackathon focussed on building awesome projects on Bitcoin Cash, the most powerful blockchain out there.",
    "status": "success",
    "time": "2020-11-20",
    "tx": "002e20d1bc9077bfca7b7e807cefa56d265046b5f2ac775f5ef70611371ad94e",
    "url" : "https://flipstarter.coinparty.org/",
    "announcement": ["https://twitter.com/BitcoinUnlimit/status/1329484986605559811"]

},
{
    "amount": 350.0,
    "archive": ["https://archive.is/nIkah"],
    "category": ["Marketing", "Adoption"],
    "title": "Bitcoin Cash (BCH) Adoption & Promotional Videos",
    "description": "Bitcoin Cash (BCH) is the sole custodian of the Bitcoin mission to become money for the world. The tide is turning for Bitcoin Cash, principally driven by unprecedented levels of fiat debasement which has presented our best opportunity ever to realize our grand vision. We as a community must capitalize on fiat debasement by positioning Bitcoin Cash as a credible alternative. No one owns Bitcoin Cash, no government, no company, no individual. It is you and I, the people, that own Bitcoin Cash. It also means it’s our responsibility to promote Bitcoin Cash. Without our help, the good that can be unlocked by this civilization changing payments technology can never occur. I am proposing that 350 BCH in donations are raised so that I can continue to spearhead efforts in the field of adoption and promotion of Bitcoin Cash, while also continuing to produce high-quality Bitcoin Cash videos.",
    "status": "expired",
    "time": "2020-25-11",
    "tx": null,
    "url": "https://flipstarter.bitcoinbch.com/",
    "announcement": ["https://twitter.com/BitcoinBCHcom/status/1330802744370753540"]
},
{
    "amount": 2.0,
    "archive": ["https://archive.is/btlDd", "https://archive.is/M5ySS"],
    "category": ["SLP", "Software", "License-UNKNOWN"],
    "title": "Flipstart hCaptcha Telegram Bot",
    "description": "We had over 2k users in our Telegram faucet @honkfaucet and it was pretty obvious there was a bot problem. We decided to remove all users, add @join_captcha_bot to stop most bots from coming back in, and we realized that over 90% of users were 'claim' bots. We aren't the only Telegram faucet, and it was apparent the community needed a solution. We found one, and it would work not only for SLP or BCH faucets, but ANY Telegram faucet.",
    "status": "success",
    "time": "2020-25-11",
    "tx": "edd58a964c01822971242b5062b862e562104bc321100ba67f42345f43176fc4",
    "url": "https://flipstarter2.honkhonk.io/",
    "announcement": ["https://twitter.com/keithpatrick05/status/1331303935928307715", "https://twitter.com/bauman2art/status/1331306068396429316"]
},
{
    "amount": 222.0,
    "archive": ["https://archive.is/eewD0"],
    "category": ["SLP", "Rewards"],
    "title": "Spice Token Project's Growth and Expansion",
    "description": "We are seeking the community's contributions to provide a seed fund to kickstart SPICE from where it is now to where it wants to be. In a nutshell: We want to grow our user base, we want to be wherever online netizens are to introduce to them BCH and SLP through SPICE, and we want to do it in a sustainable (a.k.a. profitable) way.",
    "status": "expired",
    "time": "2020-01-12",
    "tx": null,
    "url": "https://flipstarter.spice.cash/",
    "announcement": ["https://twitter.com/joemar_taganna/status/1333566534334103555"]
},
{
    "amount": 21.0,
    "archive": ["https://archive.is/xKmMP"],
    "category": ["Charity"],
    "title": "For Brandon's Mother",
    "description": "This is an urgent flipstarter regarding the situation of Brandon Hernandez and his mother. Full detail is available in his read.cash article (https://read.cash/@brandonjhz/thank-you-to-the-bitcoin-cash-community-abe1aec8). Brandon is well known to me and others in the BCH ecosystem for his work as described in the article. If you would like to support, please do. I will make sure that this campaign completes.",
    "status": "expired",
    "time": "2020-01-12",
    "tx": null,
    "url": "https://flipstarter.brandonjhz.com",
    "announcement": ["https://twitter.com/EmergentReasons/status/1333670580411715586"]
},
{
    "amount": 50.0,
    "archive": ["https://archive.is/ELCyW", "https://archive.is/FNsaF"],
    "category": ["Marketing"],
    "title": "It's Just Money Bro - A 30-Second Bitcoin Cash Commercial",
    "description": "Bitcoin Cash needs some fresh marketing towards a new crowd. The protocol can already scale to a lot of users, but where are they? Many people don’t even know that Bitcoin Cash exists, and if they do even know about Bitcoin, they likely think it is way too complicated to use. I am proposing a 30-second commercial that could be run as a YouTube advertisement.",
    "status": "success",
    "time": "2020-03-12",
    "tx": "1cf77dc2e3846d4b331c9ae660c36df5a46e05bcd081dbb4dcaa12f8470404d7",
    "url": "http://flipstarter.itsjustmoneybro.com/",
    "announcement": ["https://old.reddit.com/r/btc/comments/k5lc1s/announcing_the_launch_of_a_flipstarter_for_a_new/"]
},
{
    "amount": 9.0,
    "archive": ["https://archive.is/O9HXr"],
    "category": ["Infrastructure", "Software"],
    "title": "Fund preparing SLP for implementation on AtomicDEX atomic swap wallet",
    "description": "AtomicDEX is an atomic swap open source non custodial wallet that its developers have welcomed SLP support and offered a bounty of around $500 bounty for initial tests to get SLP support on the wallets. Some SLP supporters have pledged an additional $1500, Other notable community members are ready to donate more. Tobias Ruck a very experienced programmer in both SLP and Rust (the required language for the test) offered to do it for $4000 so we just have $2000 remaining.",
    "status": "success",
    "time": "2020-12-04",
    "tx": "09ca8c08638bbf618def8b756705c0b7efc4db3fc2738d33c6fdbb6b6767e5f2",
    "url": "https://flipstarter.googol.cash/",
    "announcement": ["https://old.reddit.com/r/btc/comments/k5seq2/2000_remaining_for_first_stage_of_slp_support_on/"]
},
{
    "amount": 43.0,
    "archive": ["https://archive.is/WrnCc", "https://archive.is/rPQ9N"],
    "category": ["Healthcare", "Humanitarian"],
    "title": "One.Surgery Research Flipstarter Campaign",
    "description": "One.Surgery is a web based platform dedicated to global surgery and now aims to challenge this paradigm with a novel approach of creating high quality, low cost, peer reviewed journals that can be seamlessly replicated (phase 1) and furthermore, installing a borderless, low cost, digital currency to support affordable, convenient, instant access to the research within these journals, with a novel approach to journal funding (phase 2). ",
    "status": "success",
    "time": "2020-12-06",
    "tx": "bfb95f858952e16e11a25c691009e481f629e467a754c53c623c3a31836040d6",
    "url": "https://flipstarter.one.surgery/",
    "announcement": ["https://twitter.com/OneDotSurgery/status/1334269869357875201"]
},
{
    "amount": 57.0,
    "archive": ["https://archive.is/pBZ9g", "https://archive.is/HxzcV"],
    "category": ["Travel", "Adoption", "Humanitarian"],
    "title": "Marc Falzon Bitcoin Cash Video Series - Venezuela",
    "description": "My proposal is this: I will produce a 5 part content series detailing my trip, experience, and the people in Venezuela who use Bitcoin Cash, while I exclusively use Bitcoin Cash for the duration of the series. This content will be similar to the “72 Hours on Bitcoin” video I produced - highlighting the emotion, travel, and food that is afforded by Cryptocurrency.",
    "status": "success",
    "time": "2020-12-10",
    "tx": "135ad4a7c1c817e44d9e853eed25207d37d20c7261b1b1e317a44a97012ca9c9",
    "url": "https://falzonbitcoin.cash/",
    "announcement": ["https://old.reddit.com/r/btc/comments/kaaqs5/only_1_week_into_crypto_and_was_invited_to/", "https://www.youtube.com/watch?v=ACHrOdflS_g"]
},
{
    "amount": 3.0,
    "archive": ["https://archive.is/08WlB", "https://archive.is/zWc3I"],
    "category": ["Charity"],
    "title": "Flipstart One Star One Family Toys For Tots!",
    "description": "Looking to build up 3 BCH 100% of it will be going to toys for children here in Bakersfield California, a VIDEO will be uploaded to the bitcoin cash community if I hit this mark!",
    "status": "success",
    "time": "2020-12-11",
    "tx": "3ab7e9aeecdda72764bd9aecc53bb0c07316488fdf4eb233ae9bea13d61235df",
    "url": "https://flipstarter3.honkhonk.io/",
    "announcement": ["https://read.cash/@Crypto.guy/toys-for-tots-hopefully-the-bch-community-can-help-me-with-this-one-a97bf0d1"]
},
{
    "amount": 27.0,
    "archive": ["https://archive.is/vN7Q3", "https://archive.is/cKoCo"],
    "category": ["Software", "Infrastructure"],
    "title": "SLP tokens and NFTs integration with Signup wallet",
    "description": "I'm trying to add SLP tokens and NFT integrations both in the wallet and its API. So users can use the wallet to keep, view and send their SLP or NFTs and developers can use the API to make transactions with these tokens. This campaign can help me speed up this effort and get some help for additional developer support materials like tutorials and guides.",
    "status": "success",
    "time": "2020-12-15",
    "tx": "21aa76cb93ab2f4448cd0975cf374e4e1f9504e0d7c244f515507d6211072d16",
    "url": "https://flipstarter.signup.cash/",
    "announcement": ["https://old.reddit.com/r/btc/comments/kdrptx/i_made_a_small_flipstarter_to_fund_integration_of/"]
},
{
    "amount": 1.0,
    "archive": ["https://archive.is/BMRZz", "https://archive.is/YLOD0"],
    "category": ["SocialMedia"],
    "title": "Help an Elf Bust some Myths about Bitcoin",
    "description": "Help this Elf crowdfund this year's rewards!",
    "status": "success",
    "time": "2020-12-16",
    "tx": "61d53d7b4266c82435f44bb9fb3a1c152d3eefab06110d038af90dbb8cd426eb",
    "url": "https://elfstarter.cash",
    "announcement": ["https://old.reddit.com/r/btc/comments/kdvs4x/our_yearly_mythbusting_season_is_coming_help_an/"]
},
{
    "amount": 21.0,
    "archive": ["https://archive.is/seFCB"],
    "category": [],
    "title": "BCH CHRISTMAS MEET UP/Banquet with Food & Giveaways!",
    "description": "Hello My name is Sandra Mendez :) I am had no idea what a flip-starter was. I love learning more and more about the bitcoin cash community. I am hosting a huge Christmas Banquet for my crypto people in Bitcoin Cash, Who Love bitcoin cash and will be buying sweaters, t-shirts, Backpacks, Pens, and will be doing a $1500 car wrap on a TESLA for more Bitcoin Cash Branding. 60-100 people are going to be attending!",
    "status": "expired",
    "time": "2020-12-16",
    "tx": null,
    "url": "https://sandrasbchbanquet.com/",
    "announcement": ["https://twitter.com/sandra__mendez/status/1339094130421460992"]
},
{
    "amount": 15.0,
    "archive": ["https://archive.is/4H3Bv"],
    "category": ["Education"],
    "title": "PoL, Flipstarter",
    "description": "Unfortunately, however, BitcoinCash is still not well known here in Japan. That's because BitcoinCash is a bit difficult. By creating easy-to-understand learning content in Japanese about BitcoinCash, will be able to expand the BitcoinCash ecosystem.",
    "status": "running",
    "time": "2020-01-12",
    "tx": null,
    "url": "https://bch-flipstarter.pol.techtec.world/",
    "announcement": [""]
},
{
    "amount": 16.0,
    "archive": ["https://archive.is/7FE3B", "https://archive.is/cYuqW"],
    "category": ["Infrastructure", "Software"],
    "title": "Electron Cash SLP/BCH Noncustodial Decentralized Exchange Plugin",
    "description": "A Noncustodial decentralized way to exchange SLP tokens to BCH and the other way around. A plugin for EC SLP version that will allow you to trade any SLP token with BCH. Everything including the order book will be on the blockchain. No centralized servers. You will be able to list any token you hold to sell or request to buy.",
    "status": "success",
    "time": "2021-01-16",
    "tx": "5a529ddc8805ea5db1e6ea68efe47c93b0eb98127c0ee0d0562ec30309d6e023",
    "url": "https://slppluginec.googol.cash",
    "announcement": ["https://read.cash/@ClearSky/electron-cash-slpbch-noncustodial-decentralized-exchange-plugin-flipstarter-c44ff712"]
},
{
    "amount": 42.0,
    "archive": ["https://archive.is/J2VIM"],
    "category": [""],
    "title": "Atilis Gym Patriots Bitcoin Cash Fundraiser",
    "description": "After reading about the unjust treatment of Atilis gym and seizure of their funds by government thugs, we decided to do something about it. We're raising funds for Atilis. Rather than fiat money that can be seized by unaccountable tyrants, we're talking about non-confiscatable Bitcoin Cash.",
    "status": "success",
    "time": "2021-01-18",
    "tx": "2e6f5ca32ccaa9589420004bc3518973f12f5d30069c44a88d7d8bf9dd3c7130",
    "url": "https://atilisfundraiser.com/",
    "announcement": ["https://www.reddit.com/r/btc/comments/kzfmzw/flipstarter_for_atilis_gym_patriots_that_defied/", "https://twitter.com/iansmithfitness/status/1350935764431986688"]
},
{
    "amount": 480.0,
    "archive": ["https://archive.is/fZ9t0"],
    "category": ["Software", "Infrastructure", "License-MIT"],
    "title": "Bitcoin Verde - 2021 Campaign",
    "description": "After successfully completing our 2020 Flipstarter we are very excited to announce and begin work on our second campaign. Our 2020 Flipstarter was completed over a 6 month period, finishing early this year. In the last few months we have made several major changes to our Bitcoin Cash full node implementation, Bitcoin Verde, all of which have been documented between our website and Github. ",
    "status": "running",
    "time": "2021-01-21",
    "tx": null,
    "url": "https://flipstarter.bitcoinverde.org/",
    "announcement": ["https://old.reddit.com/r/btc/comments/l1da5h/please_consider_supporting_bitcoin_verdes_2021/"]
},
{
    "amount": 20.0,
    "archive": ["https://archive.is/7Nlb5", "https://archive.is/L2MjG"],
    "category": ["Adoption"],
    "title": "Jett's Dev Fund",
    "description": "For the past 3 years, I have done what I can in my free time to contribute as much as possible to the BCH space. First through meet-ups, then sponsoring events, followed by participating in hackathons. I feel it's time to take that dedication to the next level and further my development education.",
    "status": "success",
    "time": "2021-01-21",
    "tx": "6d2b5c5f667187c01af2eeea240b174d4727fef8db4c42be70a7ef8b1dbe93d4",
    "url": "https://jettsdevfund.xyz/",
    "announcement": ["https://twitter.com/qqjettkgjzhxmwj/status/1351916196799639552"]
},
{
    "amount": 35.66,
    "archive": ["https://archive.is/H9pil", "https://archive.is/1fuB6"],
    "category": ["Education", "Adoption"],
    "title": "Flipstarter BitcoinCash Ryver Venezuela 2021",
    "description": "Bitcoin Cash Ryver was created in August 2019 by a group of enthusiastic young people who love Bitcoin Cash with the ideal of offering an economic alternative to the victims of state manipulation of the economy and its assets. In a country where censorship and arbitrary decisions are the order of the day, offering a message of hope to workers and youth is necessary, but it is only possible with experiences and education for all.",
    "status": "success",
    "time": "2021-12-21",
    "tx": "e9409ae7e61940846e2b790071d3fa7ca5f5a496b7553e63b8e3adc80e948174",
    "url": "https://flipstarter.ryvervenezuela.com/",
    "announcement": ["https://read.cash/@SofiaCBCH/flipstarter-bitcoincash-ryver-venezuela-2021-573198e5", "https://twitter.com/VainilaMarket/status/1352115000555532289"]
},
{
    "amount": 57.51,
    "archive": ["https://archive.is/33Hyp"],
    "category": ["Adoption", "SocialMedia"],
    "title": "Marketing and promotion of Bitcoin Cash in Thailand",
    "description": "Friendly marketing and joyful promotion of BCH, to onboard more businesses and enlarge the local and online community of users with a positive and interesting vibes.",
    "status": "running",
    "time": "2021-12-27",
    "tx": null,
    "url": "https://bangkokbitcoin.cash/",
    "announcement": ["https://twitter.com/jajaaSB/status/1354495098956832769"]
},
{
    "amount": 10.0,
    "archive": ["https://archive.is/j4tVC"],
    "category": [""],
    "title": "It's A Flipstarter Party",
    "description": "TL;DR — Cash DevOps invites ALL 33 teams from this week's CoinParty hackathon to bring your amazing projects to our platform (under development). Starting today, we're providing all the FREE tools, services and support needed for EACH team to launch a Flipstarter campaign in the next 30 days.",
    "status": "running",
    "time": "2021-01-29",
    "tx": null,
    "url": "https://flipstarter.devops.cash/",
    "announcement": ["https://old.reddit.com/r/btc/comments/l3hbrz/its_a_flipstarter_party_httpsflipstarterdevopscash/"]
}
]
